-------------------------------------------------------------------------------
Test set: client.ClientTest
-------------------------------------------------------------------------------
Tests run: 50, Failures: 49, Errors: 0, Skipped: 0, Time elapsed: 0.308 sec <<< FAILURE!
client.ClientTest.testToString()  Time elapsed: 0.01 sec  <<< FAILURE!
java.lang.NullPointerException
	at client.ClientTest.testToString(ClientTest.java:522)

client.ClientTest.testGetCoefDuree()  Time elapsed: 0.001 sec  <<< FAILURE!
java.lang.NullPointerException
	at client.ClientTest.testGetCoefDuree(ClientTest.java:209)

client.ClientTest.testGetCoefTarif()  Time elapsed: 0.001 sec  <<< FAILURE!
java.lang.NullPointerException
	at client.ClientTest.testGetCoefTarif(ClientTest.java:197)

client.ClientTest.testConstructorDefault()  Time elapsed: 0.001 sec  <<< FAILURE!
java.lang.NullPointerException
	at client.ClientTest.testConstructorDefault(ClientTest.java:75)

client.ClientTest.testConstructorWithCode()  Time elapsed: 0 sec  <<< FAILURE!
java.lang.NullPointerException
	at client.ClientTest.testConstructorWithCode(ClientTest.java:88)

client.ClientTest.testConstructorWithOnlyName()  Time elapsed: 0 sec  <<< FAILURE!
java.lang.NullPointerException
	at client.ClientTest.testConstructorWithOnlyName(ClientTest.java:101)

client.ClientTest.testGetNomClient()  Time elapsed: 0.001 sec  <<< FAILURE!
java.lang.NullPointerException
	at client.ClientTest.testGetNomClient(ClientTest.java:110)

client.ClientTest.testGetPrenomClient()  Time elapsed: 0 sec  <<< FAILURE!
java.lang.NullPointerException
	at client.ClientTest.testGetPrenomClient(ClientTest.java:120)

client.ClientTest.testGetAddress()  Time elapsed: 0 sec  <<< FAILURE!
java.lang.NullPointerException
	at client.ClientTest.testGetAddress(ClientTest.java:130)

client.ClientTest.testGetNbEmpruntsEnCours()  Time elapsed: 0 sec  <<< FAILURE!
java.lang.NullPointerException
	at client.ClientTest.testGetNbEmpruntsEnCours(ClientTest.java:141)

client.ClientTest.testGetNbEmpruntsEffectues()  Time elapsed: 0.001 sec  <<< FAILURE!
java.lang.NullPointerException
	at client.ClientTest.testGetNbEmpruntsEffectues(ClientTest.java:159)

client.ClientTest.testGetNbEmpruntsEnRetard()  Time elapsed: 0 sec  <<< FAILURE!
java.lang.NullPointerException
	at client.ClientTest.testGetNbEmpruntsEnRetard(ClientTest.java:179)

client.ClientTest.testEqualClients()  Time elapsed: 0 sec  <<< FAILURE!
java.lang.NullPointerException
	at client.ClientTest.testEqualClients(ClientTest.java:222)

client.ClientTest.testaDesEmpruntsEnCours()  Time elapsed: 0 sec  <<< FAILURE!
java.lang.NullPointerException
	at client.ClientTest.testaDesEmpruntsEnCours(ClientTest.java:233)

client.ClientTest.testPeutEmprunter()  Time elapsed: 0.002 sec  <<< FAILURE!
java.lang.NullPointerException
	at client.ClientTest.testPeutEmprunter(ClientTest.java:255)

client.ClientTest.testEmprunter()  Time elapsed: 0 sec  <<< FAILURE!
java.lang.NullPointerException
	at client.ClientTest.testEmprunter(ClientTest.java:280)

client.ClientTest.testemprunterFi()  Time elapsed: 0.241 sec  <<< FAILURE!
java.lang.NullPointerException
	at mediatheque.FicheEmprunt.<init>(FicheEmprunt.java:65)
	at client.ClientTest.testemprunterFi(ClientTest.java:302)

client.ClientTest.testMarquer()  Time elapsed: 0 sec  <<< FAILURE!
java.lang.NullPointerException
	at client.ClientTest.testMarquer(ClientTest.java:320)

client.ClientTest.testRestituer()  Time elapsed: 0 sec  <<< FAILURE!
java.lang.NullPointerException
	at client.ClientTest.testRestituer(ClientTest.java:339)

client.ClientTest.testRestituerFi()  Time elapsed: 0.003 sec  <<< FAILURE!
java.lang.NullPointerException
	at mediatheque.FicheEmprunt.<init>(FicheEmprunt.java:65)
	at client.ClientTest.testRestituerFi(ClientTest.java:361)

client.ClientTest.testDateRetour()  Time elapsed: 0.001 sec  <<< FAILURE!
java.lang.NullPointerException
	at client.ClientTest.testDateRetour(ClientTest.java:375)

client.ClientTest.testSommeDue()  Time elapsed: 0.001 sec  <<< FAILURE!
java.lang.NullPointerException
	at client.ClientTest.testSommeDue(ClientTest.java:385)

client.ClientTest.testnbMaxEmprunt()  Time elapsed: 0 sec  <<< FAILURE!
java.lang.NullPointerException
	at client.ClientTest.testnbMaxEmprunt(ClientTest.java:393)

client.ClientTest.testGetDateCotisation()  Time elapsed: 0 sec  <<< FAILURE!
java.lang.NullPointerException
	at client.ClientTest.testGetDateCotisation(ClientTest.java:403)

client.ClientTest.testGetDateInscription()  Time elapsed: 0 sec  <<< FAILURE!
java.lang.NullPointerException
	at client.ClientTest.testGetDateInscription(ClientTest.java:413)

client.ClientTest.testgetCategorie()  Time elapsed: 0.001 sec  <<< FAILURE!
java.lang.NullPointerException
	at client.ClientTest.testgetCategorie(ClientTest.java:425)

client.ClientTest.testSetCategorieOK1()  Time elapsed: 0 sec  <<< FAILURE!
java.lang.NullPointerException
	at client.ClientTest.testSetCategorieOK1(ClientTest.java:437)

client.ClientTest.testSetCategorieKo1()  Time elapsed: 0 sec  <<< FAILURE!
java.lang.NullPointerException
	at client.ClientTest.testSetCategorieKo1(ClientTest.java:447)

client.ClientTest.testSetCategorieOK2()  Time elapsed: 0 sec  <<< FAILURE!
java.lang.NullPointerException
	at client.ClientTest.testSetCategorieOK2(ClientTest.java:458)

client.ClientTest.testSetCategorieKo2()  Time elapsed: 0 sec  <<< FAILURE!
java.lang.NullPointerException
	at client.ClientTest.testSetCategorieKo2(ClientTest.java:469)

client.ClientTest.testSetReduc()  Time elapsed: 0 sec  <<< FAILURE!
java.lang.NullPointerException
	at client.ClientTest.testSetReduc(ClientTest.java:477)

client.ClientTest.testSetNom()  Time elapsed: 0.001 sec  <<< FAILURE!
java.lang.NullPointerException
	at client.ClientTest.testSetNom(ClientTest.java:487)

client.ClientTest.testSetPreNom()  Time elapsed: 0.001 sec  <<< FAILURE!
java.lang.NullPointerException
	at client.ClientTest.testSetPreNom(ClientTest.java:497)

client.ClientTest.testSetAddress()  Time elapsed: 0.001 sec  <<< FAILURE!
java.lang.NullPointerException
	at client.ClientTest.testSetAddress(ClientTest.java:507)

client.ClientTest.testGetReduc()  Time elapsed: 0 sec  <<< FAILURE!
java.lang.NullPointerException
	at client.ClientTest.testGetReduc(ClientTest.java:516)

client.ClientTest.testAfficherStatCli()  Time elapsed: 0 sec  <<< FAILURE!
java.lang.NullPointerException
	at client.ClientTest.testAfficherStatCli(ClientTest.java:541)

client.ClientTest.testEqual()  Time elapsed: 0 sec  <<< FAILURE!
java.lang.NullPointerException
	at client.CategorieClientTest.testEqual(CategorieClientTest.java:255)
	at sun.reflect.NativeMethodAccessorImpl.invoke0(Native Method)
	at sun.reflect.NativeMethodAccessorImpl.invoke(NativeMethodAccessorImpl.java:57)
	at sun.reflect.DelegatingMethodAccessorImpl.invoke(DelegatingMethodAccessorImpl.java:43)
	at java.lang.reflect.Method.invoke(Method.java:601)
	at org.apache.maven.surefire.junit.PojoTestSet.executeTestMethod(PojoTestSet.java:163)
	at org.apache.maven.surefire.junit.PojoTestSet.executeTestMethods(PojoTestSet.java:103)
	at org.apache.maven.surefire.junit.PojoTestSet.execute(PojoTestSet.java:84)
	at org.apache.maven.surefire.junit.JUnit3Provider.executeTestSet(JUnit3Provider.java:107)
	at org.apache.maven.surefire.junit.JUnit3Provider.invoke(JUnit3Provider.java:79)
	at sun.reflect.NativeMethodAccessorImpl.invoke0(Native Method)
	at sun.reflect.NativeMethodAccessorImpl.invoke(NativeMethodAccessorImpl.java:57)
	at sun.reflect.DelegatingMethodAccessorImpl.invoke(DelegatingMethodAccessorImpl.java:43)
	at java.lang.reflect.Method.invoke(Method.java:601)
	at org.apache.maven.surefire.booter.ProviderFactory$ClassLoaderProxy.invoke(ProviderFactory.java:103)
	at com.sun.proxy.$Proxy0.invoke(Unknown Source)
	at org.apache.maven.surefire.booter.SurefireStarter.invokeProvider(SurefireStarter.java:145)
	at org.apache.maven.surefire.booter.SurefireStarter.runSuitesInProcess(SurefireStarter.java:87)
	at org.apache.maven.surefire.booter.ForkedBooter.main(ForkedBooter.java:69)

client.ClientTest.testGetNbEmpruntMax()  Time elapsed: 0 sec  <<< FAILURE!
java.lang.NullPointerException
	at client.CategorieClientTest.testGetNbEmpruntMax(CategorieClientTest.java:169)
	at sun.reflect.NativeMethodAccessorImpl.invoke0(Native Method)
	at sun.reflect.NativeMethodAccessorImpl.invoke(NativeMethodAccessorImpl.java:57)
	at sun.reflect.DelegatingMethodAccessorImpl.invoke(DelegatingMethodAccessorImpl.java:43)
	at java.lang.reflect.Method.invoke(Method.java:601)
	at org.apache.maven.surefire.junit.PojoTestSet.executeTestMethod(PojoTestSet.java:163)
	at org.apache.maven.surefire.junit.PojoTestSet.executeTestMethods(PojoTestSet.java:103)
	at org.apache.maven.surefire.junit.PojoTestSet.execute(PojoTestSet.java:84)
	at org.apache.maven.surefire.junit.JUnit3Provider.executeTestSet(JUnit3Provider.java:107)
	at org.apache.maven.surefire.junit.JUnit3Provider.invoke(JUnit3Provider.java:79)
	at sun.reflect.NativeMethodAccessorImpl.invoke0(Native Method)
	at sun.reflect.NativeMethodAccessorImpl.invoke(NativeMethodAccessorImpl.java:57)
	at sun.reflect.DelegatingMethodAccessorImpl.invoke(DelegatingMethodAccessorImpl.java:43)
	at java.lang.reflect.Method.invoke(Method.java:601)
	at org.apache.maven.surefire.booter.ProviderFactory$ClassLoaderProxy.invoke(ProviderFactory.java:103)
	at com.sun.proxy.$Proxy0.invoke(Unknown Source)
	at org.apache.maven.surefire.booter.SurefireStarter.invokeProvider(SurefireStarter.java:145)
	at org.apache.maven.surefire.booter.SurefireStarter.runSuitesInProcess(SurefireStarter.java:87)
	at org.apache.maven.surefire.booter.ForkedBooter.main(ForkedBooter.java:69)

client.ClientTest.testGetCotisation()  Time elapsed: 0.001 sec  <<< FAILURE!
java.lang.NullPointerException
	at client.CategorieClientTest.testGetCotisation(CategorieClientTest.java:181)
	at sun.reflect.NativeMethodAccessorImpl.invoke0(Native Method)
	at sun.reflect.NativeMethodAccessorImpl.invoke(NativeMethodAccessorImpl.java:57)
	at sun.reflect.DelegatingMethodAccessorImpl.invoke(DelegatingMethodAccessorImpl.java:43)
	at java.lang.reflect.Method.invoke(Method.java:601)
	at org.apache.maven.surefire.junit.PojoTestSet.executeTestMethod(PojoTestSet.java:163)
	at org.apache.maven.surefire.junit.PojoTestSet.executeTestMethods(PojoTestSet.java:103)
	at org.apache.maven.surefire.junit.PojoTestSet.execute(PojoTestSet.java:84)
	at org.apache.maven.surefire.junit.JUnit3Provider.executeTestSet(JUnit3Provider.java:107)
	at org.apache.maven.surefire.junit.JUnit3Provider.invoke(JUnit3Provider.java:79)
	at sun.reflect.NativeMethodAccessorImpl.invoke0(Native Method)
	at sun.reflect.NativeMethodAccessorImpl.invoke(NativeMethodAccessorImpl.java:57)
	at sun.reflect.DelegatingMethodAccessorImpl.invoke(DelegatingMethodAccessorImpl.java:43)
	at java.lang.reflect.Method.invoke(Method.java:601)
	at org.apache.maven.surefire.booter.ProviderFactory$ClassLoaderProxy.invoke(ProviderFactory.java:103)
	at com.sun.proxy.$Proxy0.invoke(Unknown Source)
	at org.apache.maven.surefire.booter.SurefireStarter.invokeProvider(SurefireStarter.java:145)
	at org.apache.maven.surefire.booter.SurefireStarter.runSuitesInProcess(SurefireStarter.java:87)
	at org.apache.maven.surefire.booter.ForkedBooter.main(ForkedBooter.java:69)

client.ClientTest.testGetNom()  Time elapsed: 0.001 sec  <<< FAILURE!
java.lang.NullPointerException
	at client.CategorieClientTest.testGetNom(CategorieClientTest.java:219)
	at sun.reflect.NativeMethodAccessorImpl.invoke0(Native Method)
	at sun.reflect.NativeMethodAccessorImpl.invoke(NativeMethodAccessorImpl.java:57)
	at sun.reflect.DelegatingMethodAccessorImpl.invoke(DelegatingMethodAccessorImpl.java:43)
	at java.lang.reflect.Method.invoke(Method.java:601)
	at org.apache.maven.surefire.junit.PojoTestSet.executeTestMethod(PojoTestSet.java:163)
	at org.apache.maven.surefire.junit.PojoTestSet.executeTestMethods(PojoTestSet.java:103)
	at org.apache.maven.surefire.junit.PojoTestSet.execute(PojoTestSet.java:84)
	at org.apache.maven.surefire.junit.JUnit3Provider.executeTestSet(JUnit3Provider.java:107)
	at org.apache.maven.surefire.junit.JUnit3Provider.invoke(JUnit3Provider.java:79)
	at sun.reflect.NativeMethodAccessorImpl.invoke0(Native Method)
	at sun.reflect.NativeMethodAccessorImpl.invoke(NativeMethodAccessorImpl.java:57)
	at sun.reflect.DelegatingMethodAccessorImpl.invoke(DelegatingMethodAccessorImpl.java:43)
	at java.lang.reflect.Method.invoke(Method.java:601)
	at org.apache.maven.surefire.booter.ProviderFactory$ClassLoaderProxy.invoke(ProviderFactory.java:103)
	at com.sun.proxy.$Proxy0.invoke(Unknown Source)
	at org.apache.maven.surefire.booter.SurefireStarter.invokeProvider(SurefireStarter.java:145)
	at org.apache.maven.surefire.booter.SurefireStarter.runSuitesInProcess(SurefireStarter.java:87)
	at org.apache.maven.surefire.booter.ForkedBooter.main(ForkedBooter.java:69)

client.ClientTest.testGetCodeReducUtilise()  Time elapsed: 0 sec  <<< FAILURE!
java.lang.NullPointerException
	at client.CategorieClientTest.testGetCodeReducUtilise(CategorieClientTest.java:230)
	at sun.reflect.NativeMethodAccessorImpl.invoke0(Native Method)
	at sun.reflect.NativeMethodAccessorImpl.invoke(NativeMethodAccessorImpl.java:57)
	at sun.reflect.DelegatingMethodAccessorImpl.invoke(DelegatingMethodAccessorImpl.java:43)
	at java.lang.reflect.Method.invoke(Method.java:601)
	at org.apache.maven.surefire.junit.PojoTestSet.executeTestMethod(PojoTestSet.java:163)
	at org.apache.maven.surefire.junit.PojoTestSet.executeTestMethods(PojoTestSet.java:103)
	at org.apache.maven.surefire.junit.PojoTestSet.execute(PojoTestSet.java:84)
	at org.apache.maven.surefire.junit.JUnit3Provider.executeTestSet(JUnit3Provider.java:107)
	at org.apache.maven.surefire.junit.JUnit3Provider.invoke(JUnit3Provider.java:79)
	at sun.reflect.NativeMethodAccessorImpl.invoke0(Native Method)
	at sun.reflect.NativeMethodAccessorImpl.invoke(NativeMethodAccessorImpl.java:57)
	at sun.reflect.DelegatingMethodAccessorImpl.invoke(DelegatingMethodAccessorImpl.java:43)
	at java.lang.reflect.Method.invoke(Method.java:601)
	at org.apache.maven.surefire.booter.ProviderFactory$ClassLoaderProxy.invoke(ProviderFactory.java:103)
	at com.sun.proxy.$Proxy0.invoke(Unknown Source)
	at org.apache.maven.surefire.booter.SurefireStarter.invokeProvider(SurefireStarter.java:145)
	at org.apache.maven.surefire.booter.SurefireStarter.runSuitesInProcess(SurefireStarter.java:87)
	at org.apache.maven.surefire.booter.ForkedBooter.main(ForkedBooter.java:69)

client.ClientTest.testConstructorComplete()  Time elapsed: 0 sec  <<< FAILURE!
java.lang.NullPointerException
	at client.CategorieClientTest.testConstructorComplete(CategorieClientTest.java:60)
	at sun.reflect.NativeMethodAccessorImpl.invoke0(Native Method)
	at sun.reflect.NativeMethodAccessorImpl.invoke(NativeMethodAccessorImpl.java:57)
	at sun.reflect.DelegatingMethodAccessorImpl.invoke(DelegatingMethodAccessorImpl.java:43)
	at java.lang.reflect.Method.invoke(Method.java:601)
	at org.apache.maven.surefire.junit.PojoTestSet.executeTestMethod(PojoTestSet.java:163)
	at org.apache.maven.surefire.junit.PojoTestSet.executeTestMethods(PojoTestSet.java:103)
	at org.apache.maven.surefire.junit.PojoTestSet.execute(PojoTestSet.java:84)
	at org.apache.maven.surefire.junit.JUnit3Provider.executeTestSet(JUnit3Provider.java:107)
	at org.apache.maven.surefire.junit.JUnit3Provider.invoke(JUnit3Provider.java:79)
	at sun.reflect.NativeMethodAccessorImpl.invoke0(Native Method)
	at sun.reflect.NativeMethodAccessorImpl.invoke(NativeMethodAccessorImpl.java:57)
	at sun.reflect.DelegatingMethodAccessorImpl.invoke(DelegatingMethodAccessorImpl.java:43)
	at java.lang.reflect.Method.invoke(Method.java:601)
	at org.apache.maven.surefire.booter.ProviderFactory$ClassLoaderProxy.invoke(ProviderFactory.java:103)
	at com.sun.proxy.$Proxy0.invoke(Unknown Source)
	at org.apache.maven.surefire.booter.SurefireStarter.invokeProvider(SurefireStarter.java:145)
	at org.apache.maven.surefire.booter.SurefireStarter.runSuitesInProcess(SurefireStarter.java:87)
	at org.apache.maven.surefire.booter.ForkedBooter.main(ForkedBooter.java:69)

client.ClientTest.testConstructorNotComplete()  Time elapsed: 0.001 sec  <<< FAILURE!
java.lang.NullPointerException
	at client.CategorieClientTest.testConstructorNotComplete(CategorieClientTest.java:89)
	at sun.reflect.NativeMethodAccessorImpl.invoke0(Native Method)
	at sun.reflect.NativeMethodAccessorImpl.invoke(NativeMethodAccessorImpl.java:57)
	at sun.reflect.DelegatingMethodAccessorImpl.invoke(DelegatingMethodAccessorImpl.java:43)
	at java.lang.reflect.Method.invoke(Method.java:601)
	at org.apache.maven.surefire.junit.PojoTestSet.executeTestMethod(PojoTestSet.java:163)
	at org.apache.maven.surefire.junit.PojoTestSet.executeTestMethods(PojoTestSet.java:103)
	at org.apache.maven.surefire.junit.PojoTestSet.execute(PojoTestSet.java:84)
	at org.apache.maven.surefire.junit.JUnit3Provider.executeTestSet(JUnit3Provider.java:107)
	at org.apache.maven.surefire.junit.JUnit3Provider.invoke(JUnit3Provider.java:79)
	at sun.reflect.NativeMethodAccessorImpl.invoke0(Native Method)
	at sun.reflect.NativeMethodAccessorImpl.invoke(NativeMethodAccessorImpl.java:57)
	at sun.reflect.DelegatingMethodAccessorImpl.invoke(DelegatingMethodAccessorImpl.java:43)
	at java.lang.reflect.Method.invoke(Method.java:601)
	at org.apache.maven.surefire.booter.ProviderFactory$ClassLoaderProxy.invoke(ProviderFactory.java:103)
	at com.sun.proxy.$Proxy0.invoke(Unknown Source)
	at org.apache.maven.surefire.booter.SurefireStarter.invokeProvider(SurefireStarter.java:145)
	at org.apache.maven.surefire.booter.SurefireStarter.runSuitesInProcess(SurefireStarter.java:87)
	at org.apache.maven.surefire.booter.ForkedBooter.main(ForkedBooter.java:69)

client.ClientTest.testModifierNom()  Time elapsed: 0.001 sec  <<< FAILURE!
java.lang.NullPointerException
	at client.CategorieClientTest.testModifierNom(CategorieClientTest.java:104)
	at sun.reflect.NativeMethodAccessorImpl.invoke0(Native Method)
	at sun.reflect.NativeMethodAccessorImpl.invoke(NativeMethodAccessorImpl.java:57)
	at sun.reflect.DelegatingMethodAccessorImpl.invoke(DelegatingMethodAccessorImpl.java:43)
	at java.lang.reflect.Method.invoke(Method.java:601)
	at org.apache.maven.surefire.junit.PojoTestSet.executeTestMethod(PojoTestSet.java:163)
	at org.apache.maven.surefire.junit.PojoTestSet.executeTestMethods(PojoTestSet.java:103)
	at org.apache.maven.surefire.junit.PojoTestSet.execute(PojoTestSet.java:84)
	at org.apache.maven.surefire.junit.JUnit3Provider.executeTestSet(JUnit3Provider.java:107)
	at org.apache.maven.surefire.junit.JUnit3Provider.invoke(JUnit3Provider.java:79)
	at sun.reflect.NativeMethodAccessorImpl.invoke0(Native Method)
	at sun.reflect.NativeMethodAccessorImpl.invoke(NativeMethodAccessorImpl.java:57)
	at sun.reflect.DelegatingMethodAccessorImpl.invoke(DelegatingMethodAccessorImpl.java:43)
	at java.lang.reflect.Method.invoke(Method.java:601)
	at org.apache.maven.surefire.booter.ProviderFactory$ClassLoaderProxy.invoke(ProviderFactory.java:103)
	at com.sun.proxy.$Proxy0.invoke(Unknown Source)
	at org.apache.maven.surefire.booter.SurefireStarter.invokeProvider(SurefireStarter.java:145)
	at org.apache.maven.surefire.booter.SurefireStarter.runSuitesInProcess(SurefireStarter.java:87)
	at org.apache.maven.surefire.booter.ForkedBooter.main(ForkedBooter.java:69)

client.ClientTest.testModifierMax()  Time elapsed: 0 sec  <<< FAILURE!
java.lang.NullPointerException
	at client.CategorieClientTest.testModifierMax(CategorieClientTest.java:116)
	at sun.reflect.NativeMethodAccessorImpl.invoke0(Native Method)
	at sun.reflect.NativeMethodAccessorImpl.invoke(NativeMethodAccessorImpl.java:57)
	at sun.reflect.DelegatingMethodAccessorImpl.invoke(DelegatingMethodAccessorImpl.java:43)
	at java.lang.reflect.Method.invoke(Method.java:601)
	at org.apache.maven.surefire.junit.PojoTestSet.executeTestMethod(PojoTestSet.java:163)
	at org.apache.maven.surefire.junit.PojoTestSet.executeTestMethods(PojoTestSet.java:103)
	at org.apache.maven.surefire.junit.PojoTestSet.execute(PojoTestSet.java:84)
	at org.apache.maven.surefire.junit.JUnit3Provider.executeTestSet(JUnit3Provider.java:107)
	at org.apache.maven.surefire.junit.JUnit3Provider.invoke(JUnit3Provider.java:79)
	at sun.reflect.NativeMethodAccessorImpl.invoke0(Native Method)
	at sun.reflect.NativeMethodAccessorImpl.invoke(NativeMethodAccessorImpl.java:57)
	at sun.reflect.DelegatingMethodAccessorImpl.invoke(DelegatingMethodAccessorImpl.java:43)
	at java.lang.reflect.Method.invoke(Method.java:601)
	at org.apache.maven.surefire.booter.ProviderFactory$ClassLoaderProxy.invoke(ProviderFactory.java:103)
	at com.sun.proxy.$Proxy0.invoke(Unknown Source)
	at org.apache.maven.surefire.booter.SurefireStarter.invokeProvider(SurefireStarter.java:145)
	at org.apache.maven.surefire.booter.SurefireStarter.runSuitesInProcess(SurefireStarter.java:87)
	at org.apache.maven.surefire.booter.ForkedBooter.main(ForkedBooter.java:69)

client.ClientTest.testModifierCotisation()  Time elapsed: 0 sec  <<< FAILURE!
java.lang.NullPointerException
	at client.CategorieClientTest.testModifierCotisation(CategorieClientTest.java:126)
	at sun.reflect.NativeMethodAccessorImpl.invoke0(Native Method)
	at sun.reflect.NativeMethodAccessorImpl.invoke(NativeMethodAccessorImpl.java:57)
	at sun.reflect.DelegatingMethodAccessorImpl.invoke(DelegatingMethodAccessorImpl.java:43)
	at java.lang.reflect.Method.invoke(Method.java:601)
	at org.apache.maven.surefire.junit.PojoTestSet.executeTestMethod(PojoTestSet.java:163)
	at org.apache.maven.surefire.junit.PojoTestSet.executeTestMethods(PojoTestSet.java:103)
	at org.apache.maven.surefire.junit.PojoTestSet.execute(PojoTestSet.java:84)
	at org.apache.maven.surefire.junit.JUnit3Provider.executeTestSet(JUnit3Provider.java:107)
	at org.apache.maven.surefire.junit.JUnit3Provider.invoke(JUnit3Provider.java:79)
	at sun.reflect.NativeMethodAccessorImpl.invoke0(Native Method)
	at sun.reflect.NativeMethodAccessorImpl.invoke(NativeMethodAccessorImpl.java:57)
	at sun.reflect.DelegatingMethodAccessorImpl.invoke(DelegatingMethodAccessorImpl.java:43)
	at java.lang.reflect.Method.invoke(Method.java:601)
	at org.apache.maven.surefire.booter.ProviderFactory$ClassLoaderProxy.invoke(ProviderFactory.java:103)
	at com.sun.proxy.$Proxy0.invoke(Unknown Source)
	at org.apache.maven.surefire.booter.SurefireStarter.invokeProvider(SurefireStarter.java:145)
	at org.apache.maven.surefire.booter.SurefireStarter.runSuitesInProcess(SurefireStarter.java:87)
	at org.apache.maven.surefire.booter.ForkedBooter.main(ForkedBooter.java:69)

client.ClientTest.testModifierCoefDuree()  Time elapsed: 0 sec  <<< FAILURE!
java.lang.NullPointerException
	at client.CategorieClientTest.testModifierCoefDuree(CategorieClientTest.java:137)
	at sun.reflect.NativeMethodAccessorImpl.invoke0(Native Method)
	at sun.reflect.NativeMethodAccessorImpl.invoke(NativeMethodAccessorImpl.java:57)
	at sun.reflect.DelegatingMethodAccessorImpl.invoke(DelegatingMethodAccessorImpl.java:43)
	at java.lang.reflect.Method.invoke(Method.java:601)
	at org.apache.maven.surefire.junit.PojoTestSet.executeTestMethod(PojoTestSet.java:163)
	at org.apache.maven.surefire.junit.PojoTestSet.executeTestMethods(PojoTestSet.java:103)
	at org.apache.maven.surefire.junit.PojoTestSet.execute(PojoTestSet.java:84)
	at org.apache.maven.surefire.junit.JUnit3Provider.executeTestSet(JUnit3Provider.java:107)
	at org.apache.maven.surefire.junit.JUnit3Provider.invoke(JUnit3Provider.java:79)
	at sun.reflect.NativeMethodAccessorImpl.invoke0(Native Method)
	at sun.reflect.NativeMethodAccessorImpl.invoke(NativeMethodAccessorImpl.java:57)
	at sun.reflect.DelegatingMethodAccessorImpl.invoke(DelegatingMethodAccessorImpl.java:43)
	at java.lang.reflect.Method.invoke(Method.java:601)
	at org.apache.maven.surefire.booter.ProviderFactory$ClassLoaderProxy.invoke(ProviderFactory.java:103)
	at com.sun.proxy.$Proxy0.invoke(Unknown Source)
	at org.apache.maven.surefire.booter.SurefireStarter.invokeProvider(SurefireStarter.java:145)
	at org.apache.maven.surefire.booter.SurefireStarter.runSuitesInProcess(SurefireStarter.java:87)
	at org.apache.maven.surefire.booter.ForkedBooter.main(ForkedBooter.java:69)

client.ClientTest.testModifierCoefTarif()  Time elapsed: 0 sec  <<< FAILURE!
java.lang.NullPointerException
	at client.CategorieClientTest.testModifierCoefTarif(CategorieClientTest.java:148)
	at sun.reflect.NativeMethodAccessorImpl.invoke0(Native Method)
	at sun.reflect.NativeMethodAccessorImpl.invoke(NativeMethodAccessorImpl.java:57)
	at sun.reflect.DelegatingMethodAccessorImpl.invoke(DelegatingMethodAccessorImpl.java:43)
	at java.lang.reflect.Method.invoke(Method.java:601)
	at org.apache.maven.surefire.junit.PojoTestSet.executeTestMethod(PojoTestSet.java:163)
	at org.apache.maven.surefire.junit.PojoTestSet.executeTestMethods(PojoTestSet.java:103)
	at org.apache.maven.surefire.junit.PojoTestSet.execute(PojoTestSet.java:84)
	at org.apache.maven.surefire.junit.JUnit3Provider.executeTestSet(JUnit3Provider.java:107)
	at org.apache.maven.surefire.junit.JUnit3Provider.invoke(JUnit3Provider.java:79)
	at sun.reflect.NativeMethodAccessorImpl.invoke0(Native Method)
	at sun.reflect.NativeMethodAccessorImpl.invoke(NativeMethodAccessorImpl.java:57)
	at sun.reflect.DelegatingMethodAccessorImpl.invoke(DelegatingMethodAccessorImpl.java:43)
	at java.lang.reflect.Method.invoke(Method.java:601)
	at org.apache.maven.surefire.booter.ProviderFactory$ClassLoaderProxy.invoke(ProviderFactory.java:103)
	at com.sun.proxy.$Proxy0.invoke(Unknown Source)
	at org.apache.maven.surefire.booter.SurefireStarter.invokeProvider(SurefireStarter.java:145)
	at org.apache.maven.surefire.booter.SurefireStarter.runSuitesInProcess(SurefireStarter.java:87)
	at org.apache.maven.surefire.booter.ForkedBooter.main(ForkedBooter.java:69)

client.ClientTest.testModifierCodeReducActif()  Time elapsed: 0.001 sec  <<< FAILURE!
java.lang.NullPointerException
	at client.CategorieClientTest.testModifierCodeReducActif(CategorieClientTest.java:159)
	at sun.reflect.NativeMethodAccessorImpl.invoke0(Native Method)
	at sun.reflect.NativeMethodAccessorImpl.invoke(NativeMethodAccessorImpl.java:57)
	at sun.reflect.DelegatingMethodAccessorImpl.invoke(DelegatingMethodAccessorImpl.java:43)
	at java.lang.reflect.Method.invoke(Method.java:601)
	at org.apache.maven.surefire.junit.PojoTestSet.executeTestMethod(PojoTestSet.java:163)
	at org.apache.maven.surefire.junit.PojoTestSet.executeTestMethods(PojoTestSet.java:103)
	at org.apache.maven.surefire.junit.PojoTestSet.execute(PojoTestSet.java:84)
	at org.apache.maven.surefire.junit.JUnit3Provider.executeTestSet(JUnit3Provider.java:107)
	at org.apache.maven.surefire.junit.JUnit3Provider.invoke(JUnit3Provider.java:79)
	at sun.reflect.NativeMethodAccessorImpl.invoke0(Native Method)
	at sun.reflect.NativeMethodAccessorImpl.invoke(NativeMethodAccessorImpl.java:57)
	at sun.reflect.DelegatingMethodAccessorImpl.invoke(DelegatingMethodAccessorImpl.java:43)
	at java.lang.reflect.Method.invoke(Method.java:601)
	at org.apache.maven.surefire.booter.ProviderFactory$ClassLoaderProxy.invoke(ProviderFactory.java:103)
	at com.sun.proxy.$Proxy0.invoke(Unknown Source)
	at org.apache.maven.surefire.booter.SurefireStarter.invokeProvider(SurefireStarter.java:145)
	at org.apache.maven.surefire.booter.SurefireStarter.runSuitesInProcess(SurefireStarter.java:87)
	at org.apache.maven.surefire.booter.ForkedBooter.main(ForkedBooter.java:69)

